…
Now that we have asked some questions, let us dive into our data. First
we will retrieve the data using our wrapper function `chooseDataset()`.
We want to first choose to get the unfiltered data of the interest rates
data and then we will choose to grab the unfiltered data of the balance
sheet data. We will do this below.

``` r
# Get interest rates data
interestRates <- chooseDataset(func = "getUnfilteredData", data = "interest rates")
interestRates
```

    ## # A tibble: 4,402 × 11
    ##    record_date security_type_desc security_desc             avg_interest_rate_amt
    ##    <chr>       <chr>              <chr>                     <chr>                
    ##  1 2001-01-31  Marketable         Treasury Notes            6.096                
    ##  2 2001-01-31  Marketable         Treasury Bonds            8.450                
    ##  3 2001-01-31  Marketable         Treasury Inflation-Index… 3.772                
    ##  4 2001-01-31  Marketable         Treasury Inflation-Index… 3.866                
    ##  5 2001-01-31  Marketable         Federal Financing Bank    8.917                
    ##  6 2001-01-31  Marketable         Total Marketable          6.620                
    ##  7 2001-01-31  Non-marketable     Domestic Series           7.934                
    ##  8 2001-01-31  Non-marketable     Foreign Series            7.196                
    ##  9 2001-01-31  Non-marketable     R.E.A. Series             5.000                
    ## 10 2001-01-31  Non-marketable     State and Local Governme… 5.576                
    ## # ℹ 4,392 more rows
    ## # ℹ 7 more variables: src_line_nbr <chr>, record_fiscal_year <chr>,
    ## #   record_fiscal_quarter <chr>, record_calendar_year <chr>,
    ## #   record_calendar_quarter <chr>, record_calendar_month <chr>,
    ## #   record_calendar_day <chr>

``` r
# Get balance sheet data
balanceSheet <- chooseDataset(func = "getUnfilteredData", data = "balance sheet")
balanceSheet
```

    ## # A tibble: 1,182 × 13
    ##    record_date stmt_fiscal_year restmt_flag account_desc line_item_desc          
    ##    <chr>       <chr>            <chr>       <chr>        <chr>                   
    ##  1 1995-09-30  1994             Y           Assets       Property, plant, and eq…
    ##  2 1995-09-30  1994             Y           Assets       Other assets            
    ##  3 1995-09-30  1995             N           Assets       Total assets            
    ##  4 1995-09-30  1994             Y           Assets       Total assets            
    ##  5 1995-09-30  1995             N           Liabilities  Accounts payable        
    ##  6 1995-09-30  1994             Y           Liabilities  Accounts payable        
    ##  7 1995-09-30  1995             N           Liabilities  Interest payable        
    ##  8 1995-09-30  1994             Y           Liabilities  Interest payable        
    ##  9 1995-09-30  1995             N           Liabilities  Accrued payroll and ben…
    ## 10 1995-09-30  1994             Y           Liabilities  Accrued payroll and ben…
    ## # ℹ 1,172 more rows
    ## # ℹ 8 more variables: position_bil_amt <chr>, src_line_nbr <chr>,
    ## #   record_fiscal_year <chr>, record_fiscal_quarter <chr>,
    ## #   record_calendar_year <chr>, record_calendar_quarter <chr>,
    ## #   record_calendar_month <chr>, record_calendar_day <chr>

First, through inspection of the data, null values could be present,
which is something we do not want. We should use our function
`removeNulls()` to get our updated data sets without these values.

``` r
interestRates <- removeNulls(interestRates)
interestRates
```

    ## # A tibble: 4,374 × 11
    ##    record_date security_type_desc security_desc             avg_interest_rate_amt
    ##    <chr>       <chr>              <chr>                     <chr>                
    ##  1 2001-01-31  Marketable         Treasury Notes            6.096                
    ##  2 2001-01-31  Marketable         Treasury Bonds            8.450                
    ##  3 2001-01-31  Marketable         Treasury Inflation-Index… 3.772                
    ##  4 2001-01-31  Marketable         Treasury Inflation-Index… 3.866                
    ##  5 2001-01-31  Marketable         Federal Financing Bank    8.917                
    ##  6 2001-01-31  Marketable         Total Marketable          6.620                
    ##  7 2001-01-31  Non-marketable     Domestic Series           7.934                
    ##  8 2001-01-31  Non-marketable     Foreign Series            7.196                
    ##  9 2001-01-31  Non-marketable     R.E.A. Series             5.000                
    ## 10 2001-01-31  Non-marketable     State and Local Governme… 5.576                
    ## # ℹ 4,364 more rows
    ## # ℹ 7 more variables: src_line_nbr <chr>, record_fiscal_year <chr>,
    ## #   record_fiscal_quarter <chr>, record_calendar_year <chr>,
    ## #   record_calendar_quarter <chr>, record_calendar_month <chr>,
    ## #   record_calendar_day <chr>

``` r
balanceSheet <- removeNulls(balanceSheet)
balanceSheet
```

    ## # A tibble: 1,103 × 13
    ##    record_date stmt_fiscal_year restmt_flag account_desc line_item_desc          
    ##    <chr>       <chr>            <chr>       <chr>        <chr>                   
    ##  1 1995-09-30  1994             Y           Assets       Property, plant, and eq…
    ##  2 1995-09-30  1994             Y           Assets       Other assets            
    ##  3 1995-09-30  1995             N           Assets       Total assets            
    ##  4 1995-09-30  1994             Y           Assets       Total assets            
    ##  5 1995-09-30  1995             N           Liabilities  Accounts payable        
    ##  6 1995-09-30  1994             Y           Liabilities  Accounts payable        
    ##  7 1995-09-30  1995             N           Liabilities  Interest payable        
    ##  8 1995-09-30  1994             Y           Liabilities  Interest payable        
    ##  9 1995-09-30  1995             N           Liabilities  Accrued payroll and ben…
    ## 10 1995-09-30  1994             Y           Liabilities  Accrued payroll and ben…
    ## # ℹ 1,093 more rows
    ## # ℹ 8 more variables: position_bil_amt <chr>, src_line_nbr <chr>,
    ## #   record_fiscal_year <chr>, record_fiscal_quarter <chr>,
    ## #   record_calendar_year <chr>, record_calendar_quarter <chr>,
    ## #   record_calendar_month <chr>, record_calendar_day <chr>
…
Now we are going to notice that our data is all in character format,
which is not what we want. We actually want this data to be in the
correct form, so we are going to use our helper function
`convertToCorrectType()` to get this data in the right format. We are
also going to use `lapply()` to look at each column and once we get this
list in the right format, we will convert back to our tibble.

``` r
# Convert balance sheet
balanceSheet <- as_tibble(lapply(balanceSheet, convertToCorrectType))
balanceSheet
```

    ## # A tibble: 1,103 × 13
    ##    record_date stmt_fiscal_year restmt_flag account_desc line_item_desc          
    ##    <date>                 <dbl> <chr>       <chr>        <chr>                   
    ##  1 1995-09-30              1994 Y           Assets       Property, plant, and eq…
    ##  2 1995-09-30              1994 Y           Assets       Other assets            
    ##  3 1995-09-30              1995 N           Assets       Total assets            
    ##  4 1995-09-30              1994 Y           Assets       Total assets            
    ##  5 1995-09-30              1995 N           Liabilities  Accounts payable        
    ##  6 1995-09-30              1994 Y           Liabilities  Accounts payable        
    ##  7 1995-09-30              1995 N           Liabilities  Interest payable        
    ##  8 1995-09-30              1994 Y           Liabilities  Interest payable        
    ##  9 1995-09-30              1995 N           Liabilities  Accrued payroll and ben…
    ## 10 1995-09-30              1994 Y           Liabilities  Accrued payroll and ben…
    ## # ℹ 1,093 more rows
    ## # ℹ 8 more variables: position_bil_amt <dbl>, src_line_nbr <dbl>,
    ## #   record_fiscal_year <dbl>, record_fiscal_quarter <dbl>,
    ## #   record_calendar_year <dbl>, record_calendar_quarter <dbl>,
    ## #   record_calendar_month <dbl>, record_calendar_day <dbl>

``` r
# Convert interest rates
interestRates <- as_tibble(lapply(interestRates, convertToCorrectType))
interestRates
```

    ## # A tibble: 4,374 × 11
    ##    record_date security_type_desc security_desc             avg_interest_rate_amt
    ##    <date>      <chr>              <chr>                                     <dbl>
    ##  1 2001-01-31  Marketable         Treasury Notes                             6.10
    ##  2 2001-01-31  Marketable         Treasury Bonds                             8.45
    ##  3 2001-01-31  Marketable         Treasury Inflation-Index…                  3.77
    ##  4 2001-01-31  Marketable         Treasury Inflation-Index…                  3.87
    ##  5 2001-01-31  Marketable         Federal Financing Bank                     8.92
    ##  6 2001-01-31  Marketable         Total Marketable                           6.62
    ##  7 2001-01-31  Non-marketable     Domestic Series                            7.93
    ##  8 2001-01-31  Non-marketable     Foreign Series                             7.20
    ##  9 2001-01-31  Non-marketable     R.E.A. Series                              5   
    ## 10 2001-01-31  Non-marketable     State and Local Governme…                  5.58
    ## # ℹ 4,364 more rows
    ## # ℹ 7 more variables: src_line_nbr <dbl>, record_fiscal_year <dbl>,
    ## #   record_fiscal_quarter <dbl>, record_calendar_year <dbl>,
    ## #   record_calendar_quarter <dbl>, record_calendar_month <dbl>,
    ## #   record_calendar_day <dbl>
…
# Strip the percentage signs from inflationRate

inflationData$inflationRate <- gsub(" %", "", inflationData$inflationRate)

# Now use our convertToCorrectType() function to get it all in correct type
inflationData$inflationRate <- convertToCorrectType(inflationData$inflationRate)

# Show the output
inflationData
```

    ## # A tibble: 63 × 2
    ##     year inflationRate
    ##    <int>         <dbl>
    ##  1  2022          8   
    ##  2  2021          4.7 
    ##  3  2020          1.23
    ##  4  2019          1.81
    ##  5  2018          2.44
    ##  6  2017          2.13
    ##  7  2016          1.26
    ##  8  2015          0.12
    ##  9  2014          1.62
    ## 10  2013          1.46
    ## # ℹ 53 more rows

Now that we have our inflation data, we can now merge this with our
interest rates data to do some comparisons on interest rates to
inflation rates. Please note, when making this vignette the inflation
rate for 2023 was not confirmed so all data for 2023 interest rates was
not used here.

``` r
interestAndInflationRates <- inner_join(interestRates, inflationData, by = c("record_calendar_year" = "year"))

interestAndInflationRates
```

    ## # A tibble: 4,238 × 12
    ##    record_date security_type_desc security_desc             avg_interest_rate_amt
    ##    <date>      <chr>              <chr>                                     <dbl>
    ##  1 2001-01-31  Marketable         Treasury Notes                             6.10
    ##  2 2001-01-31  Marketable         Treasury Bonds                             8.45
    ##  3 2001-01-31  Marketable         Treasury Inflation-Index…                  3.77
    ##  4 2001-01-31  Marketable         Treasury Inflation-Index…                  3.87
    ##  5 2001-01-31  Marketable         Federal Financing Bank                     8.92
    ##  6 2001-01-31  Marketable         Total Marketable                           6.62
    ##  7 2001-01-31  Non-marketable     Domestic Series                            7.93
    ##  8 2001-01-31  Non-marketable     Foreign Series                             7.20
    ##  9 2001-01-31  Non-marketable     R.E.A. Series                              5   
    ## 10 2001-01-31  Non-marketable     State and Local Governme…                  5.58
    ## # ℹ 4,228 more rows
    ## # ℹ 8 more variables: src_line_nbr <dbl>, record_fiscal_year <dbl>,
    ## #   record_fiscal_quarter <dbl>, record_calendar_year <dbl>,
    ## #   record_calendar_quarter <dbl>, record_calendar_month <dbl>,
    ## #   record_calendar_day <dbl>, inflationRate <dbl>
…
To pivot slightly, I just wanted to take a quick look at the United
States balance sheet. First let us take a look at how the US fairs with
its different accounts at the fiscal year’s end. The position of each
category is in billions of US dollars.

``` r
balanceSheetTotals <- balanceSheet %>%
  group_by(record_date, account_desc) %>%
  summarize(total = sum(position_bil_amt)) %>%
  arrange(desc(record_date))

balanceSheetTotals
```

    ## # A tibble: 84 × 3
    ##    record_date account_desc                            total
    ##    <date>      <chr>                                   <dbl>
    ##  1 2022-09-30  Assets                                19712  
    ##  2 2022-09-30  Liabilities                          147600  
    ##  3 2022-09-30  Net position                        -118038  
    ##  4 2022-09-30  Unmatched transactions and balances       3  
    ##  5 2021-09-30  Assets                                21699. 
    ##  6 2021-09-30  Liabilities                          135043. 
    ##  7 2021-09-30  Net position                        -102505. 
    ##  8 2021-09-30  Unmatched transactions and balances       4.8
    ##  9 2020-09-30  Assets                                19885. 
    ## 10 2020-09-30  Liabilities                          119377. 
    ## # ℹ 74 more rows
…
